<?xml version="1.0" encoding="UTF-8" standalone="no"?>
<!-- Created with Inkscape (http://www.inkscape.org/) -->
<svg xmlns:dc="http://purl.org/dc/elements/1.1/" xmlns:cc="http://creativecommons.org/ns#" xmlns:rdf="http://www.w3.org/1999/02/22-rdf-syntax-ns#" xmlns:svg="http://www.w3.org/2000/svg" xmlns="http://www.w3.org/2000/svg" xmlns:sodipodi="http://sodipodi.sourceforge.net/DTD/sodipodi-0.dtd" xmlns:inkscape="http://www.inkscape.org/namespaces/inkscape" width="1920" height="1920" id="svg2" version="1.1" inkscape:version="0.48.5 r10040" sodipodi:docname="New document 1">
    <defs id="defs4"/>
    <sodipodi:namedview id="base" pagecolor="#ffffff" bordercolor="#666666" borderopacity="1.0" inkscape:pageopacity="0.0" inkscape:pageshadow="2" inkscape:zoom="0.35" inkscape:cx="694.8" inkscape:cy="785.8" inkscape:document-units="px" inkscape:current-layer="layer1" showgrid="false" fit-margin-top="0" fit-margin-left="0" fit-margin-right="0" fit-margin-bottom="0" inkscape:window-width="1651" inkscape:window-height="1070" inkscape:window-x="175" inkscape:window-y="25" inkscape:window-maximized="0"/>
    <metadata id="metadata7">
        <rdf:RDF>
            <cc:Work rdf:about="">
                <dc:format>image/svg+xml</dc:format>
                <dc:type rdf:resource="http://purl.org/dc/dcmitype/StillImage"/>
                <dc:title/>
            </cc:Work>
        </rdf:RDF>
    </metadata>
    <g inkscape:label="Layer 1" inkscape:groupmode="layer" id="layer1" transform="translate(-1477,-15.26)">
        <g id="g3877" inkscape:tile-cx="320" inkscape:tile-cy="320" inkscape:tile-w="640" inkscape:tile-h="640" inkscape:tile-x0="0" inkscape:tile-y0="0">
            <path inkscape:connector-curvature="0" id="path3062" d="M 1477,335.3 1477,15.26 1797,15.26 2117,15.26 2117,335.3 2117,655.3 1797,655.3 1477,655.3 1477,335.3 z" style="fill:#b5a97e;fill-opacity:1;stroke:none"/>
            <g style="opacity:0.4286;stroke:none" id="g3845">
                <path style="fill:#000000;fill-opacity:1;stroke:none" d="M 1477,596.5 1478,537.8 1513,465.8 C 1579,333.3 1619,249.6 1686,103.7 1703,64.7 1720,28.82 1722,24.01 L 1726,15.26 1852,15.26 C 1921,15.26 1977,15.47 1977,15.73 1977,15.98 1970,32.07 1960,51.48 1907,161.3 1881,216.9 1823,343.3 1762,475 1748,504.5 1695,600.3 1684,619.3 1673,639.4 1670,645 L 1665,655.3 1571,655.3 1477,655.3 1477,596.5 z M 1729,649.5 C 1734,637.3 1772,562.8 1781,544.8 1787,534.3 1806,498.6 1825,465.3 1899,330.6 1955,223.9 2036,61.51 L 2059,15.26 2088,15.26 2117,15.26 2117,194.8 2117,374.3 2073,462.1 C 2049,510.3 2018,573.5 2004,602.5 L 1978,655.3 1852,655.3 1726,655.3 1729,649.5 z M 2060,655 C 2060,654.8 2073,628.8 2089,597.2 L 2117,539.8 2117,597.5 2117,655.3 2089,655.3 C 2073,655.3 2060,655.1 2060,655 z M 1477,194.6 1477,15.26 1571,15.26 C 1622,15.26 1664,15.4 1664,15.56 1664,15.73 1656,30.24 1647,47.81 1605,125.1 1540,250.7 1496,337.8 1489,351.6 1482,365.3 1480,368.3 L 1477,373.8 1477,194.6 z" id="path3064" inkscape:connector-curvature="0"/>
                <path style="fill:#ffffff;fill-opacity:1;stroke:none" d="M 1477,624.2 1477,593.2 1491,566 C 1567,420.5 1613,341.1 1680,237.8 1718,179.2 1730,159.4 1747,128.6 1761,101.8 1778,63.79 1793,28.01 L 1799,15.26 1871,15.26 C 1911,15.26 1944,15.49 1944,15.78 1944,16.61 1922,55.66 1907,80.76 1882,124.7 1864,153.6 1824,214.3 1762,309.9 1748,338.2 1682,499.3 1658,559.6 1645,590.3 1631,625.5 L 1618,655.3 1586,655.3 1554,655.3 1555,647.5 C 1563,617.8 1563,598.1 1556,594.4 1554,593.1 1553,593.1 1549,594.9 1540,598.8 1524,617.8 1507,643.4 L 1500,655.2 1488,655.3 1477,655.3 1477,624.2 z M 1803,644.5 C 1805,638.6 1818,606.8 1832,573.8 1908,385.5 1965,258.4 2060,67.01 L 2086,15.26 2101,15.26 2117,15.26 2117,34.22 2117,53.17 2114,58.43 C 2097,87.3 2060,161.6 2036,214.3 1972,356.1 1936,476.3 1954,487.9 1958,490.7 1963,488.3 1974,476.9 1993,457.8 2020,415.1 2053,353.4 2066,328.9 2094,272.7 2107,244.2 L 2117,222.6 2117,271.8 2117,321 2094,368.4 C 2048,460.6 1986,581.8 1950,646 L 1945,655.3 1872,655.3 1798,655.3 1803,644.5 z M 2086,654.6 C 2086,654 2116,595.2 2117,594.4 2117,594.2 2117,607.8 2117,624.6 L 2117,655.3 2102,655.3 C 2093,655.3 2086,655 2086,654.6 z M 1477,271.1 1477,221.6 1487,198.2 C 1507,151.6 1523,112.5 1536,74.26 1543,53.58 1551,26.39 1553,18.51 L 1553,15.26 1585,15.26 C 1603,15.26 1617,15.65 1617,16.13 1617,17.33 1588,85.06 1570,122.8 1546,176 1503,268.1 1484,307.2 L 1477,320.6 1477,271.1 z M 1477,33.98 1477,15.26 1488,15.26 C 1498,15.26 1499,15.39 1498,17.01 1498,17.97 1493,26.4 1487,35.73 L 1477,52.71 1477,33.98 z" id="path3066" inkscape:connector-curvature="0"/>
            </g>
        </g>
        <g inkscape:tile-y0="0" inkscape:tile-x0="0" id="use3885" transform="translate(0,640)">
            <path style="fill:#b5a97e;fill-opacity:1;stroke:none" d="M 1477,335.3 1477,15.26 1797,15.26 2117,15.26 2117,335.3 2117,655.3 1797,655.3 1477,655.3 1477,335.3 z" id="path3913" inkscape:connector-curvature="0"/>
            <g id="g3915" style="opacity:0.4286;stroke:none">
                <path inkscape:connector-curvature="0" id="path3917" d="M 1477,596.5 1478,537.8 1513,465.8 C 1579,333.3 1619,249.6 1686,103.7 1703,64.7 1720,28.82 1722,24.01 L 1726,15.26 1852,15.26 C 1921,15.26 1977,15.47 1977,15.73 1977,15.98 1970,32.07 1960,51.48 1907,161.3 1881,216.9 1823,343.3 1762,475 1748,504.5 1695,600.3 1684,619.3 1673,639.4 1670,645 L 1665,655.3 1571,655.3 1477,655.3 1477,596.5 z M 1729,649.5 C 1734,637.3 1772,562.8 1781,544.8 1787,534.3 1806,498.6 1825,465.3 1899,330.6 1955,223.9 2036,61.51 L 2059,15.26 2088,15.26 2117,15.26 2117,194.8 2117,374.3 2073,462.1 C 2049,510.3 2018,573.5 2004,602.5 L 1978,655.3 1852,655.3 1726,655.3 1729,649.5 z M 2060,655 C 2060,654.8 2073,628.8 2089,597.2 L 2117,539.8 2117,597.5 2117,655.3 2089,655.3 C 2073,655.3 2060,655.1 2060,655 z M 1477,194.6 1477,15.26 1571,15.26 C 1622,15.26 1664,15.4 1664,15.56 1664,15.73 1656,30.24 1647,47.81 1605,125.1 1540,250.7 1496,337.8 1489,351.6 1482,365.3 1480,368.3 L 1477,373.8 1477,194.6 z" style="fill:#000000;fill-opacity:1;stroke:none"/>
                <path inkscape:connector-curvature="0" id="path3919" d="M 1477,624.2 1477,593.2 1491,566 C 1567,420.5 1613,341.1 1680,237.8 1718,179.2 1730,159.4 1747,128.6 1761,101.8 1778,63.79 1793,28.01 L 1799,15.26 1871,15.26 C 1911,15.26 1944,15.49 1944,15.78 1944,16.61 1922,55.66 1907,80.76 1882,124.7 1864,153.6 1824,214.3 1762,309.9 1748,338.2 1682,499.3 1658,559.6 1645,590.3 1631,625.5 L 1618,655.3 1586,655.3 1554,655.3 1555,647.5 C 1563,617.8 1563,598.1 1556,594.4 1554,593.1 1553,593.1 1549,594.9 1540,598.8 1524,617.8 1507,643.4 L 1500,655.2 1488,655.3 1477,655.3 1477,624.2 z M 1803,644.5 C 1805,638.6 1818,606.8 1832,573.8 1908,385.5 1965,258.4 2060,67.01 L 2086,15.26 2101,15.26 2117,15.26 2117,34.22 2117,53.17 2114,58.43 C 2097,87.3 2060,161.6 2036,214.3 1972,356.1 1936,476.3 1954,487.9 1958,490.7 1963,488.3 1974,476.9 1993,457.8 2020,415.1 2053,353.4 2066,328.9 2094,272.7 2107,244.2 L 2117,222.6 2117,271.8 2117,321 2094,368.4 C 2048,460.6 1986,581.8 1950,646 L 1945,655.3 1872,655.3 1798,655.3 1803,644.5 z M 2086,654.6 C 2086,654 2116,595.2 2117,594.4 2117,594.2 2117,607.8 2117,624.6 L 2117,655.3 2102,655.3 C 2093,655.3 2086,655 2086,654.6 z M 1477,271.1 1477,221.6 1487,198.2 C 1507,151.6 1523,112.5 1536,74.26 1543,53.58 1551,26.39 1553,18.51 L 1553,15.26 1585,15.26 C 1603,15.26 1617,15.65 1617,16.13 1617,17.33 1588,85.06 1570,122.8 1546,176 1503,268.1 1484,307.2 L 1477,320.6 1477,271.1 z M 1477,33.98 1477,15.26 1488,15.26 C 1498,15.26 1499,15.39 1498,17.01 1498,17.97 1493,26.4 1487,35.73 L 1477,52.71 1477,33.98 z" style="fill:#ffffff;fill-opacity:1;stroke:none"/>
            </g>
        </g>
        <g inkscape:tile-y0="0" inkscape:tile-x0="0" id="use3887" transform="translate(0,1280)">
            <path style="fill:#b5a97e;fill-opacity:1;stroke:none" d="M 1477,335.3 1477,15.26 1797,15.26 2117,15.26 2117,335.3 2117,655.3 1797,655.3 1477,655.3 1477,335.3 z" id="path3923" inkscape:connector-curvature="0"/>
            <g id="g3925" style="opacity:0.4286;stroke:none">
                <path inkscape:connector-curvature="0" id="path3927" d="M 1477,596.5 1478,537.8 1513,465.8 C 1579,333.3 1619,249.6 1686,103.7 1703,64.7 1720,28.82 1722,24.01 L 1726,15.26 1852,15.26 C 1921,15.26 1977,15.47 1977,15.73 1977,15.98 1970,32.07 1960,51.48 1907,161.3 1881,216.9 1823,343.3 1762,475 1748,504.5 1695,600.3 1684,619.3 1673,639.4 1670,645 L 1665,655.3 1571,655.3 1477,655.3 1477,596.5 z M 1729,649.5 C 1734,637.3 1772,562.8 1781,544.8 1787,534.3 1806,498.6 1825,465.3 1899,330.6 1955,223.9 2036,61.51 L 2059,15.26 2088,15.26 2117,15.26 2117,194.8 2117,374.3 2073,462.1 C 2049,510.3 2018,573.5 2004,602.5 L 1978,655.3 1852,655.3 1726,655.3 1729,649.5 z M 2060,655 C 2060,654.8 2073,628.8 2089,597.2 L 2117,539.8 2117,597.5 2117,655.3 2089,655.3 C 2073,655.3 2060,655.1 2060,655 z M 1477,194.6 1477,15.26 1571,15.26 C 1622,15.26 1664,15.4 1664,15.56 1664,15.73 1656,30.24 1647,47.81 1605,125.1 1540,250.7 1496,337.8 1489,351.6 1482,365.3 1480,368.3 L 1477,373.8 1477,194.6 z" style="fill:#000000;fill-opacity:1;stroke:none"/>
                <path inkscape:connector-curvature="0" id="path3929" d="M 1477,624.2 1477,593.2 1491,566 C 1567,420.5 1613,341.1 1680,237.8 1718,179.2 1730,159.4 1747,128.6 1761,101.8 1778,63.79 1793,28.01 L 1799,15.26 1871,15.26 C 1911,15.26 1944,15.49 1944,15.78 1944,16.61 1922,55.66 1907,80.76 1882,124.7 1864,153.6 1824,214.3 1762,309.9 1748,338.2 1682,499.3 1658,559.6 1645,590.3 1631,625.5 L 1618,655.3 1586,655.3 1554,655.3 1555,647.5 C 1563,617.8 1563,598.1 1556,594.4 1554,593.1 1553,593.1 1549,594.9 1540,598.8 1524,617.8 1507,643.4 L 1500,655.2 1488,655.3 1477,655.3 1477,624.2 z M 1803,644.5 C 1805,638.6 1818,606.8 1832,573.8 1908,385.5 1965,258.4 2060,67.01 L 2086,15.26 2101,15.26 2117,15.26 2117,34.22 2117,53.17 2114,58.43 C 2097,87.3 2060,161.6 2036,214.3 1972,356.1 1936,476.3 1954,487.9 1958,490.7 1963,488.3 1974,476.9 1993,457.8 2020,415.1 2053,353.4 2066,328.9 2094,272.7 2107,244.2 L 2117,222.6 2117,271.8 2117,321 2094,368.4 C 2048,460.6 1986,581.8 1950,646 L 1945,655.3 1872,655.3 1798,655.3 1803,644.5 z M 2086,654.6 C 2086,654 2116,595.2 2117,594.4 2117,594.2 2117,607.8 2117,624.6 L 2117,655.3 2102,655.3 C 2093,655.3 2086,655 2086,654.6 z M 1477,271.1 1477,221.6 1487,198.2 C 1507,151.6 1523,112.5 1536,74.26 1543,53.58 1551,26.39 1553,18.51 L 1553,15.26 1585,15.26 C 1603,15.26 1617,15.65 1617,16.13 1617,17.33 1588,85.06 1570,122.8 1546,176 1503,268.1 1484,307.2 L 1477,320.6 1477,271.1 z M 1477,33.98 1477,15.26 1488,15.26 C 1498,15.26 1499,15.39 1498,17.01 1498,17.97 1493,26.4 1487,35.73 L 1477,52.71 1477,33.98 z" style="fill:#ffffff;fill-opacity:1;stroke:none"/>
            </g>
        </g>
        <g inkscape:tile-y0="0" inkscape:tile-x0="0" id="use3889" transform="translate(640,0)">
            <path style="fill:#b5a97e;fill-opacity:1;stroke:none" d="M 1477,335.3 1477,15.26 1797,15.26 2117,15.26 2117,335.3 2117,655.3 1797,655.3 1477,655.3 1477,335.3 z" id="path3933" inkscape:connector-curvature="0"/>
            <g id="g3935" style="opacity:0.4286;stroke:none">
                <path inkscape:connector-curvature="0" id="path3937" d="M 1477,596.5 1478,537.8 1513,465.8 C 1579,333.3 1619,249.6 1686,103.7 1703,64.7 1720,28.82 1722,24.01 L 1726,15.26 1852,15.26 C 1921,15.26 1977,15.47 1977,15.73 1977,15.98 1970,32.07 1960,51.48 1907,161.3 1881,216.9 1823,343.3 1762,475 1748,504.5 1695,600.3 1684,619.3 1673,639.4 1670,645 L 1665,655.3 1571,655.3 1477,655.3 1477,596.5 z M 1729,649.5 C 1734,637.3 1772,562.8 1781,544.8 1787,534.3 1806,498.6 1825,465.3 1899,330.6 1955,223.9 2036,61.51 L 2059,15.26 2088,15.26 2117,15.26 2117,194.8 2117,374.3 2073,462.1 C 2049,510.3 2018,573.5 2004,602.5 L 1978,655.3 1852,655.3 1726,655.3 1729,649.5 z M 2060,655 C 2060,654.8 2073,628.8 2089,597.2 L 2117,539.8 2117,597.5 2117,655.3 2089,655.3 C 2073,655.3 2060,655.1 2060,655 z M 1477,194.6 1477,15.26 1571,15.26 C 1622,15.26 1664,15.4 1664,15.56 1664,15.73 1656,30.24 1647,47.81 1605,125.1 1540,250.7 1496,337.8 1489,351.6 1482,365.3 1480,368.3 L 1477,373.8 1477,194.6 z" style="fill:#000000;fill-opacity:1;stroke:none"/>
                <path inkscape:connector-curvature="0" id="path3939" d="M 1477,624.2 1477,593.2 1491,566 C 1567,420.5 1613,341.1 1680,237.8 1718,179.2 1730,159.4 1747,128.6 1761,101.8 1778,63.79 1793,28.01 L 1799,15.26 1871,15.26 C 1911,15.26 1944,15.49 1944,15.78 1944,16.61 1922,55.66 1907,80.76 1882,124.7 1864,153.6 1824,214.3 1762,309.9 1748,338.2 1682,499.3 1658,559.6 1645,590.3 1631,625.5 L 1618,655.3 1586,655.3 1554,655.3 1555,647.5 C 1563,617.8 1563,598.1 1556,594.4 1554,593.1 1553,593.1 1549,594.9 1540,598.8 1524,617.8 1507,643.4 L 1500,655.2 1488,655.3 1477,655.3 1477,624.2 z M 1803,644.5 C 1805,638.6 1818,606.8 1832,573.8 1908,385.5 1965,258.4 2060,67.01 L 2086,15.26 2101,15.26 2117,15.26 2117,34.22 2117,53.17 2114,58.43 C 2097,87.3 2060,161.6 2036,214.3 1972,356.1 1936,476.3 1954,487.9 1958,490.7 1963,488.3 1974,476.9 1993,457.8 2020,415.1 2053,353.4 2066,328.9 2094,272.7 2107,244.2 L 2117,222.6 2117,271.8 2117,321 2094,368.4 C 2048,460.6 1986,581.8 1950,646 L 1945,655.3 1872,655.3 1798,655.3 1803,644.5 z M 2086,654.6 C 2086,654 2116,595.2 2117,594.4 2117,594.2 2117,607.8 2117,624.6 L 2117,655.3 2102,655.3 C 2093,655.3 2086,655 2086,654.6 z M 1477,271.1 1477,221.6 1487,198.2 C 1507,151.6 1523,112.5 1536,74.26 1543,53.58 1551,26.39 1553,18.51 L 1553,15.26 1585,15.26 C 1603,15.26 1617,15.65 1617,16.13 1617,17.33 1588,85.06 1570,122.8 1546,176 1503,268.1 1484,307.2 L 1477,320.6 1477,271.1 z M 1477,33.98 1477,15.26 1488,15.26 C 1498,15.26 1499,15.39 1498,17.01 1498,17.97 1493,26.4 1487,35.73 L 1477,52.71 1477,33.98 z" style="fill:#ffffff;fill-opacity:1;stroke:none"/>
            </g>
        </g>
        <g inkscape:tile-y0="0" inkscape:tile-x0="0" id="use3891" transform="translate(640,640)">
            <path style="fill:#b5a97e;fill-opacity:1;stroke:none" d="M 1477,335.3 1477,15.26 1797,15.26 2117,15.26 2117,335.3 2117,655.3 1797,655.3 1477,655.3 1477,335.3 z" id="path3943" inkscape:connector-curvature="0"/>
            <g id="g3945" style="opacity:0.4286;stroke:none">
                <path inkscape:connector-curvature="0" id="path3947" d="M 1477,596.5 1478,537.8 1513,465.8 C 1579,333.3 1619,249.6 1686,103.7 1703,64.7 1720,28.82 1722,24.01 L 1726,15.26 1852,15.26 C 1921,15.26 1977,15.47 1977,15.73 1977,15.98 1970,32.07 1960,51.48 1907,161.3 1881,216.9 1823,343.3 1762,475 1748,504.5 1695,600.3 1684,619.3 1673,639.4 1670,645 L 1665,655.3 1571,655.3 1477,655.3 1477,596.5 z M 1729,649.5 C 1734,637.3 1772,562.8 1781,544.8 1787,534.3 1806,498.6 1825,465.3 1899,330.6 1955,223.9 2036,61.51 L 2059,15.26 2088,15.26 2117,15.26 2117,194.8 2117,374.3 2073,462.1 C 2049,510.3 2018,573.5 2004,602.5 L 1978,655.3 1852,655.3 1726,655.3 1729,649.5 z M 2060,655 C 2060,654.8 2073,628.8 2089,597.2 L 2117,539.8 2117,597.5 2117,655.3 2089,655.3 C 2073,655.3 2060,655.1 2060,655 z M 1477,194.6 1477,15.26 1571,15.26 C 1622,15.26 1664,15.4 1664,15.56 1664,15.73 1656,30.24 1647,47.81 1605,125.1 1540,250.7 1496,337.8 1489,351.6 1482,365.3 1480,368.3 L 1477,373.8 1477,194.6 z" style="fill:#000000;fill-opacity:1;stroke:none"/>
                <path inkscape:connector-curvature="0" id="path3949" d="M 1477,624.2 1477,593.2 1491,566 C 1567,420.5 1613,341.1 1680,237.8 1718,179.2 1730,159.4 1747,128.6 1761,101.8 1778,63.79 1793,28.01 L 1799,15.26 1871,15.26 C 1911,15.26 1944,15.49 1944,15.78 1944,16.61 1922,55.66 1907,80.76 1882,124.7 1864,153.6 1824,214.3 1762,309.9 1748,338.2 1682,499.3 1658,559.6 1645,590.3 1631,625.5 L 1618,655.3 1586,655.3 1554,655.3 1555,647.5 C 1563,617.8 1563,598.1 1556,594.4 1554,593.1 1553,593.1 1549,594.9 1540,598.8 1524,617.8 1507,643.4 L 1500,655.2 1488,655.3 1477,655.3 1477,624.2 z M 1803,644.5 C 1805,638.6 1818,606.8 1832,573.8 1908,385.5 1965,258.4 2060,67.01 L 2086,15.26 2101,15.26 2117,15.26 2117,34.22 2117,53.17 2114,58.43 C 2097,87.3 2060,161.6 2036,214.3 1972,356.1 1936,476.3 1954,487.9 1958,490.7 1963,488.3 1974,476.9 1993,457.8 2020,415.1 2053,353.4 2066,328.9 2094,272.7 2107,244.2 L 2117,222.6 2117,271.8 2117,321 2094,368.4 C 2048,460.6 1986,581.8 1950,646 L 1945,655.3 1872,655.3 1798,655.3 1803,644.5 z M 2086,654.6 C 2086,654 2116,595.2 2117,594.4 2117,594.2 2117,607.8 2117,624.6 L 2117,655.3 2102,655.3 C 2093,655.3 2086,655 2086,654.6 z M 1477,271.1 1477,221.6 1487,198.2 C 1507,151.6 1523,112.5 1536,74.26 1543,53.58 1551,26.39 1553,18.51 L 1553,15.26 1585,15.26 C 1603,15.26 1617,15.65 1617,16.13 1617,17.33 1588,85.06 1570,122.8 1546,176 1503,268.1 1484,307.2 L 1477,320.6 1477,271.1 z M 1477,33.98 1477,15.26 1488,15.26 C 1498,15.26 1499,15.39 1498,17.01 1498,17.97 1493,26.4 1487,35.73 L 1477,52.71 1477,33.98 z" style="fill:#ffffff;fill-opacity:1;stroke:none"/>
            </g>
        </g>
        <g inkscape:tile-y0="0" inkscape:tile-x0="0" id="use3893" transform="translate(640,1280)">
            <path style="fill:#b5a97e;fill-opacity:1;stroke:none" d="M 1477,335.3 1477,15.26 1797,15.26 2117,15.26 2117,335.3 2117,655.3 1797,655.3 1477,655.3 1477,335.3 z" id="path3953" inkscape:connector-curvature="0"/>
            <g id="g3955" style="opacity:0.4286;stroke:none">
                <path inkscape:connector-curvature="0" id="path3957" d="M 1477,596.5 1478,537.8 1513,465.8 C 1579,333.3 1619,249.6 1686,103.7 1703,64.7 1720,28.82 1722,24.01 L 1726,15.26 1852,15.26 C 1921,15.26 1977,15.47 1977,15.73 1977,15.98 1970,32.07 1960,51.48 1907,161.3 1881,216.9 1823,343.3 1762,475 1748,504.5 1695,600.3 1684,619.3 1673,639.4 1670,645 L 1665,655.3 1571,655.3 1477,655.3 1477,596.5 z M 1729,649.5 C 1734,637.3 1772,562.8 1781,544.8 1787,534.3 1806,498.6 1825,465.3 1899,330.6 1955,223.9 2036,61.51 L 2059,15.26 2088,15.26 2117,15.26 2117,194.8 2117,374.3 2073,462.1 C 2049,510.3 2018,573.5 2004,602.5 L 1978,655.3 1852,655.3 1726,655.3 1729,649.5 z M 2060,655 C 2060,654.8 2073,628.8 2089,597.2 L 2117,539.8 2117,597.5 2117,655.3 2089,655.3 C 2073,655.3 2060,655.1 2060,655 z M 1477,194.6 1477,15.26 1571,15.26 C 1622,15.26 1664,15.4 1664,15.56 1664,15.73 1656,30.24 1647,47.81 1605,125.1 1540,250.7 1496,337.8 1489,351.6 1482,365.3 1480,368.3 L 1477,373.8 1477,194.6 z" style="fill:#000000;fill-opacity:1;stroke:none"/>
                <path inkscape:connector-curvature="0" id="path3959" d="M 1477,624.2 1477,593.2 1491,566 C 1567,420.5 1613,341.1 1680,237.8 1718,179.2 1730,159.4 1747,128.6 1761,101.8 1778,63.79 1793,28.01 L 1799,15.26 1871,15.26 C 1911,15.26 1944,15.49 1944,15.78 1944,16.61 1922,55.66 1907,80.76 1882,124.7 1864,153.6 1824,214.3 1762,309.9 1748,338.2 1682,499.3 1658,559.6 1645,590.3 1631,625.5 L 1618,655.3 1586,655.3 1554,655.3 1555,647.5 C 1563,617.8 1563,598.1 1556,594.4 1554,593.1 1553,593.1 1549,594.9 1540,598.8 1524,617.8 1507,643.4 L 1500,655.2 1488,655.3 1477,655.3 1477,624.2 z M 1803,644.5 C 1805,638.6 1818,606.8 1832,573.8 1908,385.5 1965,258.4 2060,67.01 L 2086,15.26 2101,15.26 2117,15.26 2117,34.22 2117,53.17 2114,58.43 C 2097,87.3 2060,161.6 2036,214.3 1972,356.1 1936,476.3 1954,487.9 1958,490.7 1963,488.3 1974,476.9 1993,457.8 2020,415.1 2053,353.4 2066,328.9 2094,272.7 2107,244.2 L 2117,222.6 2117,271.8 2117,321 2094,368.4 C 2048,460.6 1986,581.8 1950,646 L 1945,655.3 1872,655.3 1798,655.3 1803,644.5 z M 2086,654.6 C 2086,654 2116,595.2 2117,594.4 2117,594.2 2117,607.8 2117,624.6 L 2117,655.3 2102,655.3 C 2093,655.3 2086,655 2086,654.6 z M 1477,271.1 1477,221.6 1487,198.2 C 1507,151.6 1523,112.5 1536,74.26 1543,53.58 1551,26.39 1553,18.51 L 1553,15.26 1585,15.26 C 1603,15.26 1617,15.65 1617,16.13 1617,17.33 1588,85.06 1570,122.8 1546,176 1503,268.1 1484,307.2 L 1477,320.6 1477,271.1 z M 1477,33.98 1477,15.26 1488,15.26 C 1498,15.26 1499,15.39 1498,17.01 1498,17.97 1493,26.4 1487,35.73 L 1477,52.71 1477,33.98 z" style="fill:#ffffff;fill-opacity:1;stroke:none"/>
            </g>
        </g>
        <g inkscape:tile-y0="0" inkscape:tile-x0="0" id="use3895" transform="translate(1280,0)">
            <path style="fill:#b5a97e;fill-opacity:1;stroke:none" d="M 1477,335.3 1477,15.26 1797,15.26 2117,15.26 2117,335.3 2117,655.3 1797,655.3 1477,655.3 1477,335.3 z" id="path3963" inkscape:connector-curvature="0"/>
            <g id="g3965" style="opacity:0.4286;stroke:none">
                <path inkscape:connector-curvature="0" id="path3967" d="M 1477,596.5 1478,537.8 1513,465.8 C 1579,333.3 1619,249.6 1686,103.7 1703,64.7 1720,28.82 1722,24.01 L 1726,15.26 1852,15.26 C 1921,15.26 1977,15.47 1977,15.73 1977,15.98 1970,32.07 1960,51.48 1907,161.3 1881,216.9 1823,343.3 1762,475 1748,504.5 1695,600.3 1684,619.3 1673,639.4 1670,645 L 1665,655.3 1571,655.3 1477,655.3 1477,596.5 z M 1729,649.5 C 1734,637.3 1772,562.8 1781,544.8 1787,534.3 1806,498.6 1825,465.3 1899,330.6 1955,223.9 2036,61.51 L 2059,15.26 2088,15.26 2117,15.26 2117,194.8 2117,374.3 2073,462.1 C 2049,510.3 2018,573.5 2004,602.5 L 1978,655.3 1852,655.3 1726,655.3 1729,649.5 z M 2060,655 C 2060,654.8 2073,628.8 2089,597.2 L 2117,539.8 2117,597.5 2117,655.3 2089,655.3 C 2073,655.3 2060,655.1 2060,655 z M 1477,194.6 1477,15.26 1571,15.26 C 1622,15.26 1664,15.4 1664,15.56 1664,15.73 1656,30.24 1647,47.81 1605,125.1 1540,250.7 1496,337.8 1489,351.6 1482,365.3 1480,368.3 L 1477,373.8 1477,194.6 z" style="fill:#000000;fill-opacity:1;stroke:none"/>
                <path inkscape:connector-curvature="0" id="path3969" d="M 1477,624.2 1477,593.2 1491,566 C 1567,420.5 1613,341.1 1680,237.8 1718,179.2 1730,159.4 1747,128.6 1761,101.8 1778,63.79 1793,28.01 L 1799,15.26 1871,15.26 C 1911,15.26 1944,15.49 1944,15.78 1944,16.61 1922,55.66 1907,80.76 1882,124.7 1864,153.6 1824,214.3 1762,309.9 1748,338.2 1682,499.3 1658,559.6 1645,590.3 1631,625.5 L 1618,655.3 1586,655.3 1554,655.3 1555,647.5 C 1563,617.8 1563,598.1 1556,594.4 1554,593.1 1553,593.1 1549,594.9 1540,598.8 1524,617.8 1507,643.4 L 1500,655.2 1488,655.3 1477,655.3 1477,624.2 z M 1803,644.5 C 1805,638.6 1818,606.8 1832,573.8 1908,385.5 1965,258.4 2060,67.01 L 2086,15.26 2101,15.26 2117,15.26 2117,34.22 2117,53.17 2114,58.43 C 2097,87.3 2060,161.6 2036,214.3 1972,356.1 1936,476.3 1954,487.9 1958,490.7 1963,488.3 1974,476.9 1993,457.8 2020,415.1 2053,353.4 2066,328.9 2094,272.7 2107,244.2 L 2117,222.6 2117,271.8 2117,321 2094,368.4 C 2048,460.6 1986,581.8 1950,646 L 1945,655.3 1872,655.3 1798,655.3 1803,644.5 z M 2086,654.6 C 2086,654 2116,595.2 2117,594.4 2117,594.2 2117,607.8 2117,624.6 L 2117,655.3 2102,655.3 C 2093,655.3 2086,655 2086,654.6 z M 1477,271.1 1477,221.6 1487,198.2 C 1507,151.6 1523,112.5 1536,74.26 1543,53.58 1551,26.39 1553,18.51 L 1553,15.26 1585,15.26 C 1603,15.26 1617,15.65 1617,16.13 1617,17.33 1588,85.06 1570,122.8 1546,176 1503,268.1 1484,307.2 L 1477,320.6 1477,271.1 z M 1477,33.98 1477,15.26 1488,15.26 C 1498,15.26 1499,15.39 1498,17.01 1498,17.97 1493,26.4 1487,35.73 L 1477,52.71 1477,33.98 z" style="fill:#ffffff;fill-opacity:1;stroke:none"/>
            </g>
        </g>
        <g inkscape:tile-y0="0" inkscape:tile-x0="0" id="use3897" transform="translate(1280,640)">
            <path style="fill:#b5a97e;fill-opacity:1;stroke:none" d="M 1477,335.3 1477,15.26 1797,15.26 2117,15.26 2117,335.3 2117,655.3 1797,655.3 1477,655.3 1477,335.3 z" id="path3973" inkscape:connector-curvature="0"/>
            <g id="g3975" style="opacity:0.4286;stroke:none">
                <path inkscape:connector-curvature="0" id="path3977" d="M 1477,596.5 1478,537.8 1513,465.8 C 1579,333.3 1619,249.6 1686,103.7 1703,64.7 1720,28.82 1722,24.01 L 1726,15.26 1852,15.26 C 1921,15.26 1977,15.47 1977,15.73 1977,15.98 1970,32.07 1960,51.48 1907,161.3 1881,216.9 1823,343.3 1762,475 1748,504.5 1695,600.3 1684,619.3 1673,639.4 1670,645 L 1665,655.3 1571,655.3 1477,655.3 1477,596.5 z M 1729,649.5 C 1734,637.3 1772,562.8 1781,544.8 1787,534.3 1806,498.6 1825,465.3 1899,330.6 1955,223.9 2036,61.51 L 2059,15.26 2088,15.26 2117,15.26 2117,194.8 2117,374.3 2073,462.1 C 2049,510.3 2018,573.5 2004,602.5 L 1978,655.3 1852,655.3 1726,655.3 1729,649.5 z M 2060,655 C 2060,654.8 2073,628.8 2089,597.2 L 2117,539.8 2117,597.5 2117,655.3 2089,655.3 C 2073,655.3 2060,655.1 2060,655 z M 1477,194.6 1477,15.26 1571,15.26 C 1622,15.26 1664,15.4 1664,15.56 1664,15.73 1656,30.24 1647,47.81 1605,125.1 1540,250.7 1496,337.8 1489,351.6 1482,365.3 1480,368.3 L 1477,373.8 1477,194.6 z" style="fill:#000000;fill-opacity:1;stroke:none"/>
                <path inkscape:connector-curvature="0" id="path3979" d="M 1477,624.2 1477,593.2 1491,566 C 1567,420.5 1613,341.1 1680,237.8 1718,179.2 1730,159.4 1747,128.6 1761,101.8 1778,63.79 1793,28.01 L 1799,15.26 1871,15.26 C 1911,15.26 1944,15.49 1944,15.78 1944,16.61 1922,55.66 1907,80.76 1882,124.7 1864,153.6 1824,214.3 1762,309.9 1748,338.2 1682,499.3 1658,559.6 1645,590.3 1631,625.5 L 1618,655.3 1586,655.3 1554,655.3 1555,647.5 C 1563,617.8 1563,598.1 1556,594.4 1554,593.1 1553,593.1 1549,594.9 1540,598.8 1524,617.8 1507,643.4 L 1500,655.2 1488,655.3 1477,655.3 1477,624.2 z M 1803,644.5 C 1805,638.6 1818,606.8 1832,573.8 1908,385.5 1965,258.4 2060,67.01 L 2086,15.26 2101,15.26 2117,15.26 2117,34.22 2117,53.17 2114,58.43 C 2097,87.3 2060,161.6 2036,214.3 1972,356.1 1936,476.3 1954,487.9 1958,490.7 1963,488.3 1974,476.9 1993,457.8 2020,415.1 2053,353.4 2066,328.9 2094,272.7 2107,244.2 L 2117,222.6 2117,271.8 2117,321 2094,368.4 C 2048,460.6 1986,581.8 1950,646 L 1945,655.3 1872,655.3 1798,655.3 1803,644.5 z M 2086,654.6 C 2086,654 2116,595.2 2117,594.4 2117,594.2 2117,607.8 2117,624.6 L 2117,655.3 2102,655.3 C 2093,655.3 2086,655 2086,654.6 z M 1477,271.1 1477,221.6 1487,198.2 C 1507,151.6 1523,112.5 1536,74.26 1543,53.58 1551,26.39 1553,18.51 L 1553,15.26 1585,15.26 C 1603,15.26 1617,15.65 1617,16.13 1617,17.33 1588,85.06 1570,122.8 1546,176 1503,268.1 1484,307.2 L 1477,320.6 1477,271.1 z M 1477,33.98 1477,15.26 1488,15.26 C 1498,15.26 1499,15.39 1498,17.01 1498,17.97 1493,26.4 1487,35.73 L 1477,52.71 1477,33.98 z" style="fill:#ffffff;fill-opacity:1;stroke:none"/>
            </g>
        </g>
        <g inkscape:tile-y0="0" inkscape:tile-x0="0" id="use3899" transform="translate(1280,1280)">
            <path style="fill:#b5a97e;fill-opacity:1;stroke:none" d="M 1477,335.3 1477,15.26 1797,15.26 2117,15.26 2117,335.3 2117,655.3 1797,655.3 1477,655.3 1477,335.3 z" id="path3983" inkscape:connector-curvature="0"/>
            <g id="g3985" style="opacity:0.4286;stroke:none">
                <path inkscape:connector-curvature="0" id="path3987" d="M 1477,596.5 1478,537.8 1513,465.8 C 1579,333.3 1619,249.6 1686,103.7 1703,64.7 1720,28.82 1722,24.01 L 1726,15.26 1852,15.26 C 1921,15.26 1977,15.47 1977,15.73 1977,15.98 1970,32.07 1960,51.48 1907,161.3 1881,216.9 1823,343.3 1762,475 1748,504.5 1695,600.3 1684,619.3 1673,639.4 1670,645 L 1665,655.3 1571,655.3 1477,655.3 1477,596.5 z M 1729,649.5 C 1734,637.3 1772,562.8 1781,544.8 1787,534.3 1806,498.6 1825,465.3 1899,330.6 1955,223.9 2036,61.51 L 2059,15.26 2088,15.26 2117,15.26 2117,194.8 2117,374.3 2073,462.1 C 2049,510.3 2018,573.5 2004,602.5 L 1978,655.3 1852,655.3 1726,655.3 1729,649.5 z M 2060,655 C 2060,654.8 2073,628.8 2089,597.2 L 2117,539.8 2117,597.5 2117,655.3 2089,655.3 C 2073,655.3 2060,655.1 2060,655 z M 1477,194.6 1477,15.26 1571,15.26 C 1622,15.26 1664,15.4 1664,15.56 1664,15.73 1656,30.24 1647,47.81 1605,125.1 1540,250.7 1496,337.8 1489,351.6 1482,365.3 1480,368.3 L 1477,373.8 1477,194.6 z" style="fill:#000000;fill-opacity:1;stroke:none"/>
                <path inkscape:connector-curvature="0" id="path3989" d="M 1477,624.2 1477,593.2 1491,566 C 1567,420.5 1613,341.1 1680,237.8 1718,179.2 1730,159.4 1747,128.6 1761,101.8 1778,63.79 1793,28.01 L 1799,15.26 1871,15.26 C 1911,15.26 1944,15.49 1944,15.78 1944,16.61 1922,55.66 1907,80.76 1882,124.7 1864,153.6 1824,214.3 1762,309.9 1748,338.2 1682,499.3 1658,559.6 1645,590.3 1631,625.5 L 1618,655.3 1586,655.3 1554,655.3 1555,647.5 C 1563,617.8 1563,598.1 1556,594.4 1554,593.1 1553,593.1 1549,594.9 1540,598.8 1524,617.8 1507,643.4 L 1500,655.2 1488,655.3 1477,655.3 1477,624.2 z M 1803,644.5 C 1805,638.6 1818,606.8 1832,573.8 1908,385.5 1965,258.4 2060,67.01 L 2086,15.26 2101,15.26 2117,15.26 2117,34.22 2117,53.17 2114,58.43 C 2097,87.3 2060,161.6 2036,214.3 1972,356.1 1936,476.3 1954,487.9 1958,490.7 1963,488.3 1974,476.9 1993,457.8 2020,415.1 2053,353.4 2066,328.9 2094,272.7 2107,244.2 L 2117,222.6 2117,271.8 2117,321 2094,368.4 C 2048,460.6 1986,581.8 1950,646 L 1945,655.3 1872,655.3 1798,655.3 1803,644.5 z M 2086,654.6 C 2086,654 2116,595.2 2117,594.4 2117,594.2 2117,607.8 2117,624.6 L 2117,655.3 2102,655.3 C 2093,655.3 2086,655 2086,654.6 z M 1477,271.1 1477,221.6 1487,198.2 C 1507,151.6 1523,112.5 1536,74.26 1543,53.58 1551,26.39 1553,18.51 L 1553,15.26 1585,15.26 C 1603,15.26 1617,15.65 1617,16.13 1617,17.33 1588,85.06 1570,122.8 1546,176 1503,268.1 1484,307.2 L 1477,320.6 1477,271.1 z M 1477,33.98 1477,15.26 1488,15.26 C 1498,15.26 1499,15.39 1498,17.01 1498,17.97 1493,26.4 1487,35.73 L 1477,52.71 1477,33.98 z" style="fill:#ffffff;fill-opacity:1;stroke:none"/>
            </g>
        </g>
    </g>
</svg>