{
  "aspectWidth": 1920,
  "aspectHeight": 1280,
  "enableKeyboardZoom": true,
  "enableKeyboardRotation": true,
  "enableKeyboardNavigation": true,
  "enableMouseTranslation": true,
  "enableMouseZoom": true,
  "enableMouseRotation": true,
  "enableMouseNavigation": true,
  "frames": [
    {
      "frameId": "frame2477",
      "title": "Übersicht",
      "titleLevel": 0,
      "notes": "",
      "timeoutMs": 0,
      "timeoutEnable": false,
      "transitionDurationMs": 2000,
      "showInFrameList": true,
      "showFrameNumber": true,
      "layerProperties": {
        "layer2": {
          "link": false,
          "referenceElementId": "rect819",
          "outlineElementId": "rect1187",
          "outlineElementAuto": true,
          "transitionTimingFunction": "linear",
          "transitionRelativeZoom": 0,
          "transitionPathId": ""
        },
        "layer3": {
          "link": false,
          "referenceElementId": "rect1187",
          "outlineElementId": "rect1187",
          "outlineElementAuto": true,
          "transitionTimingFunction": "linear",
          "transitionRelativeZoom": 0,
          "transitionPathId": ""
        },
        "layer1": {
          "link": false,
          "referenceElementId": "text1167",
          "outlineElementId": "rect1187",
          "outlineElementAuto": true,
          "transitionTimingFunction": "linear",
          "transitionRelativeZoom": 0,
          "transitionPathId": ""
        },
        "__sozi_auto__": {
          "link": false,
          "referenceElementId": "",
          "outlineElementId": "rect1187",
          "outlineElementAuto": true,
          "transitionTimingFunction": "linear",
          "transitionRelativeZoom": 0,
          "transitionPathId": ""
        }
      },
      "cameraStates": {
        "layer2": {
          "cx": 118.31731195328237,
          "cy": 74.91031914970782,
          "width": 277.74097098711144,
          "height": 190.84655847235524,
          "opacity": 1,
          "angle": 0,
          "clipped": false,
          "clipXOffset": 0,
          "clipYOffset": 0,
          "clipWidthFactor": 1,
          "clipHeightFactor": 1
        },
        "layer3": {
          "cx": 118.31743402359487,
          "cy": 82.09488946220782,
          "width": 226.48970346972794,
          "height": 146.27460015753263,
          "opacity": 1,
          "angle": 0,
          "clipped": false,
          "clipXOffset": 0,
          "clipYOffset": 0,
          "clipWidthFactor": 1,
          "clipHeightFactor": 1
        },
        "layer1": {
          "cx": 119.09868402359487,
          "cy": 82.97770196220782,
          "width": 241.19697548509777,
          "height": 148.22525528165184,
          "opacity": 1,
          "angle": 0,
          "clipped": false,
          "clipXOffset": 0,
          "clipYOffset": 0,
          "clipWidthFactor": 1,
          "clipHeightFactor": 1
        },
        "__sozi_auto__": {
          "cx": 118.31743402359487,
          "cy": 82.09488946220782,
          "width": 226.48970346972794,
          "height": 146.27460015753263,
          "opacity": 1,
          "angle": 0,
          "clipped": false,
          "clipXOffset": 0,
          "clipYOffset": 0,
          "clipWidthFactor": 1,
          "clipHeightFactor": 1
        }
      },
      "cameraOffsets": {
        "layer2": {
          "deltaX": -135.68256597640513,
          "deltaY": -87.2384387848625,
          "widthFactor": 0.4458458729719054,
          "heightFactor": 0.4319132024149043,
          "deltaAngle": 0
        },
        "layer3": {
          "deltaX": -0.176630307459817,
          "deltaY": 1.2027843596687546,
          "widthFactor": 0.9999138541063194,
          "heightFactor": 0.9686665135383963,
          "deltaAngle": 0
        },
        "layer1": {
          "deltaX": 32.31743402359487,
          "deltaY": 2.943789303516411,
          "widthFactor": 2.0231463212380416,
          "heightFactor": 2.375761667424422,
          "deltaAngle": 0
        }
      }
    },
    {
      "frameId": "frame7236",
      "title": "Repository",
      "titleLevel": 0,
      "notes": "",
      "timeoutMs": 0,
      "timeoutEnable": false,
      "transitionDurationMs": 2000,
      "showInFrameList": true,
      "showFrameNumber": true,
      "layerProperties": {
        "layer2": {
          "link": false,
          "referenceElementId": "rect819",
          "outlineElementId": "rect1346",
          "outlineElementAuto": true,
          "transitionTimingFunction": "linear",
          "transitionRelativeZoom": 0,
          "transitionPathId": ""
        },
        "layer3": {
          "link": false,
          "referenceElementId": "rect1346",
          "outlineElementId": "rect1346",
          "outlineElementAuto": true,
          "transitionTimingFunction": "linear",
          "transitionRelativeZoom": 0,
          "transitionPathId": ""
        },
        "layer1": {
          "link": false,
          "referenceElementId": "text1262",
          "outlineElementId": "rect1346",
          "outlineElementAuto": true,
          "transitionTimingFunction": "linear",
          "transitionRelativeZoom": 0,
          "transitionPathId": ""
        },
        "__sozi_auto__": {
          "link": false,
          "referenceElementId": "",
          "outlineElementId": "rect1346",
          "outlineElementAuto": true,
          "transitionTimingFunction": "linear",
          "transitionRelativeZoom": 0,
          "transitionPathId": ""
        }
      },
      "cameraStates": {
        "layer2": {
          "cx": 285.0647606764591,
          "cy": 142.10978181230905,
          "width": 154.6565652065916,
          "height": 109.60269531854463,
          "opacity": 1,
          "angle": 0,
          "clipped": false,
          "clipXOffset": 0,
          "clipYOffset": 0,
          "clipWidthFactor": 1,
          "clipHeightFactor": 1
        },
        "layer3": {
          "cx": 285.0648827467716,
          "cy": 149.29435212480905,
          "width": 126.11794172388437,
          "height": 84.00513251188802,
          "opacity": 1,
          "angle": 0,
          "clipped": false,
          "clipXOffset": 0,
          "clipYOffset": 0,
          "clipWidthFactor": 1,
          "clipHeightFactor": 1
        },
        "layer1": {
          "cx": 285.4008202467716,
          "cy": 149.48185212480905,
          "width": 182.85862883367753,
          "height": 87.0463154841544,
          "opacity": 1,
          "angle": 0,
          "clipped": false,
          "clipXOffset": 0,
          "clipYOffset": 0,
          "clipWidthFactor": 1,
          "clipHeightFactor": 1
        },
        "__sozi_auto__": {
          "cx": 285.0648827467716,
          "cy": 149.29435212480905,
          "width": 126.11794172388437,
          "height": 84.00513251188802,
          "opacity": 1,
          "angle": 0,
          "clipped": false,
          "clipXOffset": 0,
          "clipYOffset": 0,
          "clipWidthFactor": 1,
          "clipHeightFactor": 1
        }
      },
      "cameraOffsets": {
        "layer2": {
          "deltaX": 31.064882746771616,
          "deltaY": -20.03897612226126,
          "widthFactor": 0.248263664810796,
          "heightFactor": 0.2480466585683537,
          "deltaAngle": 0
        },
        "layer3": {
          "deltaX": -0.10613776104088402,
          "deltaY": 0.16254670488717693,
          "widthFactor": 0.9905086111941119,
          "heightFactor": 0.9896426633898414,
          "deltaAngle": 0
        },
        "layer1": {
          "deltaX": -18.153867253228384,
          "deltaY": -12.893147875190948,
          "widthFactor": 5.877926793247294,
          "heightFactor": 2.8835218379844108,
          "deltaAngle": 0
        }
      }
    },
    {
      "frameId": "frame9614",
      "title": "Zweig",
      "titleLevel": 0,
      "notes": "",
      "timeoutMs": 0,
      "timeoutEnable": false,
      "transitionDurationMs": 2000,
      "showInFrameList": true,
      "showFrameNumber": true,
      "layerProperties": {
        "layer2": {
          "link": false,
          "referenceElementId": "rect819",
          "outlineElementId": "rect6486",
          "outlineElementAuto": true,
          "transitionTimingFunction": "linear",
          "transitionRelativeZoom": 0,
          "transitionPathId": ""
        },
        "layer3": {
          "link": false,
          "referenceElementId": "rect6486",
          "outlineElementId": "rect6486",
          "outlineElementAuto": true,
          "transitionTimingFunction": "linear",
          "transitionRelativeZoom": 0,
          "transitionPathId": ""
        },
        "layer1": {
          "link": false,
          "referenceElementId": "text6126",
          "outlineElementId": "rect6486",
          "outlineElementAuto": true,
          "transitionTimingFunction": "linear",
          "transitionRelativeZoom": 0,
          "transitionPathId": ""
        },
        "__sozi_auto__": {
          "link": false,
          "referenceElementId": "",
          "outlineElementId": "rect6486",
          "outlineElementAuto": true,
          "transitionTimingFunction": "linear",
          "transitionRelativeZoom": 0,
          "transitionPathId": ""
        }
      },
      "cameraStates": {
        "layer2": {
          "cx": 370.4599956527332,
          "cy": 239.2884868452391,
          "width": 147.29196686342178,
          "height": 104.38351935099573,
          "opacity": 1,
          "angle": 152.71134741875198,
          "clipped": false,
          "clipXOffset": 0,
          "clipYOffset": 0,
          "clipWidthFactor": 1,
          "clipHeightFactor": 1
        },
        "layer3": {
          "cx": 370.4601177230457,
          "cy": 246.4730571577391,
          "width": 120.11232545131946,
          "height": 80.00488810656067,
          "opacity": 1,
          "angle": 152.71134741875198,
          "clipped": false,
          "clipXOffset": 0,
          "clipYOffset": 0,
          "clipWidthFactor": 1,
          "clipHeightFactor": 1
        },
        "layer1": {
          "cx": 368.8783306136707,
          "cy": 245.20837820266098,
          "width": 141.124569716743,
          "height": 82.80112975218213,
          "opacity": 1,
          "angle": 152.71134741875198,
          "clipped": false,
          "clipXOffset": 0,
          "clipYOffset": 0,
          "clipWidthFactor": 1,
          "clipHeightFactor": 1
        },
        "__sozi_auto__": {
          "cx": 370.4601177230457,
          "cy": 246.4730571577391,
          "width": 120.11232545131942,
          "height": 80.00488810656067,
          "opacity": 1,
          "angle": 152.71134741875198,
          "clipped": false,
          "clipXOffset": 0,
          "clipYOffset": 0,
          "clipWidthFactor": 1,
          "clipHeightFactor": 1
        }
      },
      "cameraOffsets": {
        "layer2": {
          "deltaX": 116.4601177230457,
          "deltaY": 77.1397289106688,
          "widthFactor": 0.23644158553409333,
          "heightFactor": 0.23623491292224352,
          "deltaAngle": 152.71134741875198
        },
        "layer3": {
          "deltaX": 0.2444805160144483,
          "deltaY": -2.1925769975343314,
          "widthFactor": 0.9433415344705909,
          "heightFactor": 0.9425168222760473,
          "deltaAngle": 0.17152197929885915
        },
        "layer1": {
          "deltaX": 1.9388774886706983,
          "deltaY": 10.669224149926606,
          "widthFactor": 1.4743670358915366,
          "heightFactor": 1.7386063989959506,
          "deltaAngle": 0.17152197929885915
        }
      }
    },
    {
      "frameId": "frame7616",
      "title": "Merge",
      "titleLevel": 0,
      "notes": "",
      "timeoutMs": 0,
      "timeoutEnable": false,
      "transitionDurationMs": 2000,
      "showInFrameList": true,
      "showFrameNumber": true,
      "layerProperties": {
        "layer2": {
          "link": false,
          "referenceElementId": "rect819",
          "outlineElementId": "rect6672",
          "outlineElementAuto": true,
          "transitionTimingFunction": "linear",
          "transitionRelativeZoom": 0,
          "transitionPathId": ""
        },
        "layer3": {
          "link": false,
          "referenceElementId": "rect6672",
          "outlineElementId": "rect6672",
          "outlineElementAuto": true,
          "transitionTimingFunction": "linear",
          "transitionRelativeZoom": 0,
          "transitionPathId": ""
        },
        "layer1": {
          "link": false,
          "referenceElementId": "text1167-2",
          "outlineElementId": "rect6672",
          "outlineElementAuto": true,
          "transitionTimingFunction": "linear",
          "transitionRelativeZoom": 0,
          "transitionPathId": ""
        },
        "__sozi_auto__": {
          "link": false,
          "referenceElementId": "",
          "outlineElementId": "rect6672",
          "outlineElementAuto": true,
          "transitionTimingFunction": "linear",
          "transitionRelativeZoom": 0,
          "transitionPathId": ""
        }
      },
      "cameraStates": {
        "layer2": {
          "cx": 178.71094778030997,
          "cy": 258.7330885522441,
          "width": 135.25561302364255,
          "height": 90.17040868242837,
          "opacity": 1,
          "angle": -168.63230009227058,
          "clipped": false,
          "clipXOffset": 0,
          "clipYOffset": 0,
          "clipWidthFactor": 0.9999999999999998,
          "clipHeightFactor": 0.9999999999999999
        },
        "layer3": {
          "cx": 177.93171385799303,
          "cy": 264.94515190713196,
          "width": 103.75754277189932,
          "height": 69.17169518126622,
          "opacity": 1,
          "angle": -168.63230009227058,
          "clipped": false,
          "clipXOffset": 0,
          "clipYOffset": 0,
          "clipWidthFactor": 1,
          "clipHeightFactor": 1.0000000000000002
        },
        "layer1": {
          "cx": 178.1920349568214,
          "cy": 264.68872280916577,
          "width": 134.53379333925884,
          "height": 89.68919555950589,
          "opacity": 1,
          "angle": -168.63230009227058,
          "clipped": false,
          "clipXOffset": 0,
          "clipYOffset": 0,
          "clipWidthFactor": 0.9999999999999998,
          "clipHeightFactor": 1
        },
        "__sozi_auto__": {
          "cx": 177.93171385799303,
          "cy": 264.94515190713196,
          "width": 103.75754277189928,
          "height": 69.17169518126619,
          "opacity": 1,
          "angle": -168.63230009227058,
          "clipped": false,
          "clipXOffset": 0,
          "clipYOffset": 0,
          "clipWidthFactor": 0.9999999999999998,
          "clipHeightFactor": 0.9999999999999999
        }
      },
      "cameraOffsets": {
        "layer2": {
          "deltaX": -75.28893014937753,
          "deltaY": 96.5843306176738,
          "widthFactor": 0.21712013408952366,
          "heightFactor": 0.20406859986804404,
          "deltaAngle": -168.63230009227058
        },
        "layer3": {
          "deltaX": -0.6054260345850935,
          "deltaY": -0.8460163057586669,
          "widthFactor": 0.8148938857320761,
          "heightFactor": 0.8148937880752832,
          "deltaAngle": 0.13909272999504196
        },
        "layer1": {
          "deltaX": -8.931195023647348,
          "deltaY": 26.128725250572018,
          "widthFactor": 1.3330488889476027,
          "heightFactor": 7.0778156791718585,
          "deltaAngle": 0.13909272999504196
        }
      }
    },
    {
      "frameId": "frame6745",
      "title": "GitLab",
      "titleLevel": 0,
      "notes": "",
      "timeoutMs": 0,
      "timeoutEnable": false,
      "transitionDurationMs": 2000,
      "showInFrameList": true,
      "showFrameNumber": true,
      "layerProperties": {
        "layer2": {
          "link": false,
          "referenceElementId": "rect819",
          "outlineElementId": "rect1022",
          "outlineElementAuto": true,
          "transitionTimingFunction": "linear",
          "transitionRelativeZoom": 0,
          "transitionPathId": ""
        },
        "layer3": {
          "link": false,
          "referenceElementId": "rect1022",
          "outlineElementId": "rect1022",
          "outlineElementAuto": true,
          "transitionTimingFunction": "linear",
          "transitionRelativeZoom": 0,
          "transitionPathId": ""
        },
        "layer1": {
          "link": false,
          "referenceElementId": "text1036",
          "outlineElementId": "rect1022",
          "outlineElementAuto": true,
          "transitionTimingFunction": "linear",
          "transitionRelativeZoom": 0,
          "transitionPathId": ""
        },
        "__sozi_auto__": {
          "link": false,
          "referenceElementId": "",
          "outlineElementId": "rect1022",
          "outlineElementAuto": true,
          "transitionTimingFunction": "linear",
          "transitionRelativeZoom": 0,
          "transitionPathId": ""
        }
      },
      "cameraStates": {
        "layer2": {
          "cx": 72.44973613715143,
          "cy": 193.76968045455786,
          "width": 132.4129593772209,
          "height": 88.27530625148059,
          "opacity": 1,
          "angle": -141.19609227106596,
          "clipped": false,
          "clipXOffset": 0,
          "clipYOffset": 0,
          "clipWidthFactor": 0.9999999999999998,
          "clipHeightFactor": 1
        },
        "layer3": {
          "cx": 72.74923641817433,
          "cy": 200.57682647602235,
          "width": 101.48808992740736,
          "height": 67.65872661827157,
          "opacity": 1,
          "angle": -141.19609227106596,
          "clipped": false,
          "clipXOffset": 0,
          "clipYOffset": 0,
          "clipWidthFactor": 1,
          "clipHeightFactor": 1
        },
        "layer1": {
          "cx": 72.29657171881738,
          "cy": 198.11282015465304,
          "width": 116.23892318056767,
          "height": 77.49261545371178,
          "opacity": 1,
          "angle": -141.19609227106596,
          "clipped": false,
          "clipXOffset": 0,
          "clipYOffset": 0,
          "clipWidthFactor": 1,
          "clipHeightFactor": 1
        },
        "__sozi_auto__": {
          "cx": 72.74923641817433,
          "cy": 200.57682647602235,
          "width": 101.48808992740737,
          "height": 67.65872661827159,
          "opacity": 1,
          "angle": -141.19609227106596,
          "clipped": false,
          "clipXOffset": 0,
          "clipYOffset": 0,
          "clipWidthFactor": 0.9999999999999998,
          "clipHeightFactor": 0.9999999999999999
        }
      },
      "cameraOffsets": {
        "layer2": {
          "deltaX": -181.55014179253607,
          "deltaY": 31.620922519987545,
          "widthFactor": 0.2125569420187202,
          "heightFactor": 0.19977971058229096,
          "deltaAngle": -141.19609227106596
        },
        "layer3": {
          "deltaX": -0.2715689407123847,
          "deltaY": 1.7675308217254724,
          "widthFactor": 0.9174833422455673,
          "heightFactor": 0.917483247324506,
          "deltaAngle": -0.24487461969874857
        },
        "layer1": {
          "deltaX": 0.3192996851259693,
          "deltaY": -2.117328160776651,
          "widthFactor": 1.2395982139509452,
          "heightFactor": 3.8888031162457444,
          "deltaAngle": -0.24487713916948906
        }
      }
    }
  ],
  "elementsToHide": [],
  "selectedFrames": [
    "frame2477"
  ],
  "selectedLayers": [
    "layer2",
    "layer3",
    "layer1",
    "__sozi_auto__"
  ],
  "editableLayers": [
    "layer3"
  ]
}